98A2283|KNQ|PRS|18.08.2016 03:26|18.08.2016 13:42|18791.00|17
98A2284|NVT|FNO|13.08.2016 09:19|13.08.2016 19:35|46786.00|11
98A2285|VIN|FNO|05.08.2016 17:41|06.08.2016 03:57|28064.00|19
98A2286|TGC|OYQ|20.08.2016 07:02|20.08.2016 17:18|42122.00|26
98A2287|TGC|PRS|28.08.2016 03:00|28.08.2016 13:16|43263.00|7
98A2288|NVT|PLE|01.08.2016 21:25|02.08.2016 07:41|48952.00|19
98A2289|KNQ|NVT|07.08.2016 06:42|07.08.2016 16:58|21538.00|15
98A2290|OVW|MCX|29.07.2016 19:48|30.07.2016 06:04|49650.00|3
98A2291|OYQ|KNQ|28.07.2016 19:09|29.07.2016 05:25|33269.00|6
98A2292|IQS|KSQ|29.07.2016 03:00|29.07.2016 13:16|49106.00|3
98A2293|WSP|PRS|20.08.2016 22:05|21.08.2016 08:21|16413.00|23
98A2294|PLE|KNQ|17.08.2016 21:56|18.08.2016 08:12|13422.00|13
98A2295|OYQ|QCE|28.08.2016 08:11|28.08.2016 18:27|34843.00|14
98A2296|RUF|MCX|30.07.2016 04:18|30.07.2016 14:34|49039.00|6
98A2297|PRS|VIN|24.07.2016 23:20|25.07.2016 09:36|20858.00|0
98A2298|VIN|TGC|20.07.2016 09:04|20.07.2016 19:20|18760.00|3
98A2299|FNO|KNQ|08.08.2016 09:47|08.08.2016 20:03|10840.00|0
98A2300|NVT|VIN|26.08.2016 22:15|27.08.2016 08:31|35589.00|25
98A2301|PRS|KMC|21.08.2016 05:28|21.08.2016 15:44|29800.00|17
98A2302|KTO|OVW|20.08.2016 04:59|20.08.2016 15:15|30266.00|0
98A2303|QCE|RUF|04.08.2016 22:09|05.08.2016 08:25|46278.00|5
98A2304|RUF|KSQ|17.08.2016 13:03|17.08.2016 23:19|21922.00|5
98A2305|TGC|WSP|08.08.2016 13:11|08.08.2016 23:27|37447.00|7
98A2306|QCE|KSQ|22.08.2016 03:17|22.08.2016 13:33|24917.00|6
98A2307|NVT|KTO|22.08.2016 03:55|22.08.2016 14:11|41805.00|8
98A2308|SVI|PRS|27.07.2016 12:05|27.07.2016 22:21|10865.00|10
98A2309|WSP|NVT|19.08.2016 23:11|20.08.2016 09:27|13440.00|28
98A2310|PRS|IQS|27.07.2016 17:01|28.07.2016 03:17|19674.00|2
98A2311|IQS|SVI|17.08.2016 10:50|17.08.2016 21:06|39772.00|14
98A2312|NVT|IQS|27.07.2016 18:26|28.07.2016 04:42|24524.00|1
98A2313|RUF|UUI|30.07.2016 07:38|30.07.2016 17:54|37684.00|24
98A2314|QCE|VIN|20.08.2016 02:55|20.08.2016 13:11|28633.00|5
98A2315|PLE|KNQ|31.07.2016 17:36|01.08.2016 03:52|46488.00|8
98A2316|KMC|FNO|08.08.2016 13:53|09.08.2016 00:09|26523.00|26
98A2317|FNO|SVI|07.08.2016 14:30|08.08.2016 00:46|29197.00|6
98A2318|GFY|QCE|21.08.2016 09:20|21.08.2016 19:36|12729.00|15
98A2319|OYQ|QCE|14.08.2016 06:46|14.08.2016 17:02|46399.00|23
98A2320|FNO|GFY|26.08.2016 12:04|26.08.2016 22:20|39278.00|16
98A2321|KMC|PRS|02.08.2016 02:31|02.08.2016 12:47|26661.00|21
98A2322|OVW|TGC|23.08.2016 13:44|24.08.2016 00:00|17052.00|17
98A2323|FNO|RUF|21.08.2016 19:28|22.08.2016 05:44|12620.00|11
98A2324|QCE|TGC|22.08.2016 04:56|22.08.2016 15:12|31624.00|5
98A2325|KNQ|VIN|30.08.2016 17:00|31.08.2016 03:16|16589.00|7
98A2326|FNO|RUF|08.08.2016 15:24|09.08.2016 01:40|34471.00|20
98A2327|OYQ|IQS|28.08.2016 03:22|28.08.2016 13:38|23365.00|18
98A2328|VIN|TGC|25.07.2016 01:15|25.07.2016 11:31|19366.00|4
98A2329|OVW|KMC|23.07.2016 02:38|23.07.2016 12:54|48514.00|8
98A2330|MCX|UUI|28.08.2016 11:32|28.08.2016 21:48|37573.00|14
98A2331|FNO|KTO|09.08.2016 13:54|10.08.2016 00:10|22514.00|11
98A2332|FNO|UUI|22.07.2016 03:17|22.07.2016 13:33|33021.00|7
98A2333|PRS|KMC|11.08.2016 22:56|12.08.2016 09:12|28425.00|8
98A2334|NVT|MCX|16.08.2016 17:43|17.08.2016 03:59|36262.00|27
98A2335|RUF|KMC|14.08.2016 23:01|15.08.2016 09:17|13958.00|27
98A2336|NVT|VIN|25.07.2016 08:08|25.07.2016 18:24|10695.00|15
98A2337|OYQ|KTO|16.08.2016 08:29|16.08.2016 18:45|17703.00|6
98A2338|TGC|IQS|23.07.2016 08:32|23.07.2016 18:48|38275.00|19
98A2339|KTO|UUI|29.08.2016 14:33|30.08.2016 00:49|24675.00|29
98A2340|KSQ|GFY|01.08.2016 13:15|01.08.2016 23:31|42174.00|27
98A2341|KMC|SVI|12.08.2016 13:32|12.08.2016 23:48|17136.00|24
98A2342|KTO|SVI|04.08.2016 15:06|05.08.2016 01:22|37727.00|2
98A2343|NVT|PRS|04.08.2016 03:06|04.08.2016 13:22|39851.00|17
98A2344|WSP|PRS|11.08.2016 02:36|11.08.2016 12:52|22811.00|26
98A2345|RUF|WSP|16.08.2016 20:23|17.08.2016 06:39|48503.00|15
98A2346|TGC|FNO|31.07.2016 02:16|31.07.2016 12:32|17123.00|0
98A2347|RUF|TGC|22.07.2016 15:01|23.07.2016 01:17|24174.00|3
98A2348|UUI|TGC|01.08.2016 20:35|02.08.2016 06:51|34311.00|27
98A2349|OVW|QCE|21.07.2016 09:57|21.07.2016 20:13|25171.00|5
98A2350|VIN|UUI|21.08.2016 15:24|22.08.2016 01:40|43269.00|14
98A2351|PLE|KNQ|19.08.2016 22:52|20.08.2016 09:08|42711.00|28
98A2352|NVT|PLE|20.07.2016 10:07|20.07.2016 20:23|20067.00|1
98A2353|SVI|KMC|17.08.2016 17:20|18.08.2016 03:36|27823.00|25
98A2354|PRS|TGC|17.08.2016 02:01|17.08.2016 12:17|17924.00|0
98A2355|WSP|PLE|29.08.2016 06:36|29.08.2016 16:52|32726.00|22
98A2356|VIN|PRS|26.08.2016 18:13|27.08.2016 04:29|36234.00|25
98A2357|RUF|PRS|27.07.2016 08:36|27.07.2016 18:52|34176.00|13
98A2358|KTO|UUI|12.08.2016 20:27|13.08.2016 06:43|19542.00|3
98A2359|PLE|NVT|25.07.2016 23:35|26.07.2016 09:51|19822.00|15
98A2360|TGC|SVI|20.07.2016 13:47|21.07.2016 00:03|40798.00|7
98A2361|PLE|SVI|02.08.2016 22:52|03.08.2016 09:08|33715.00|20
98A2362|OVW|SVI|26.08.2016 07:06|26.08.2016 17:22|39792.00|24
98A2363|WSP|TGC|25.08.2016 08:13|25.08.2016 18:29|26289.00|13
98A2364|SVI|KTO|15.08.2016 09:57|15.08.2016 20:13|38426.00|20
98A2365|QCE|PLE|30.08.2016 04:09|30.08.2016 14:25|35156.00|15
98A2366|WSP|PLE|31.07.2016 07:44|31.07.2016 18:00|25822.00|14
98A2367|KNQ|KMC|21.07.2016 17:23|22.07.2016 03:39|26891.00|3
98A2368|UUI|OYQ|20.07.2016 18:16|21.07.2016 04:32|38873.00|10
98A2369|KNQ|OYQ|19.08.2016 17:26|20.08.2016 03:42|29976.00|24
98A2370|QCE|UUI|20.08.2016 09:40|20.08.2016 19:56|40216.00|20
98A2371|WSP|UUI|21.08.2016 18:12|22.08.2016 04:28|32481.00|8
98A2372|WSP|NVT|30.08.2016 13:09|30.08.2016 23:25|11676.00|2
98A2373|KSQ|RUF|24.07.2016 10:40|24.07.2016 20:56|25163.00|28
98A2374|PLE|KMC|04.08.2016 23:36|05.08.2016 09:52|22319.00|29
98A2375|OVW|GFY|02.08.2016 21:37|03.08.2016 07:53|43551.00|10
98A2376|KNQ|KMC|21.07.2016 23:21|22.07.2016 09:37|14327.00|22
98A2377|UUI|PLE|30.07.2016 12:24|30.07.2016 22:40|41091.00|13
98A2378|PRS|FNO|04.08.2016 23:07|05.08.2016 09:23|38473.00|9
98A2379|TGC|QCE|24.08.2016 15:44|25.08.2016 02:00|39768.00|3
98A2380|KSQ|PLE|26.07.2016 18:36|27.07.2016 04:52|37650.00|8
98A2381|UUI|KNQ|26.08.2016 06:58|26.08.2016 17:14|32897.00|24
98A2382|IQS|WSP|23.07.2016 01:12|23.07.2016 11:28|18145.00|17
98A2383|KNQ|KSQ|20.08.2016 13:16|20.08.2016 23:32|34773.00|23
98A2384|RUF|TGC|26.08.2016 08:51|26.08.2016 19:07|24138.00|1
98A2385|VIN|RUF|28.07.2016 09:16|28.07.2016 19:32|33960.00|20
98A2386|IQS|VIN|21.08.2016 11:38|21.08.2016 21:54|35999.00|19
98A2387|PLE|SVI|24.07.2016 01:45|24.07.2016 12:01|32508.00|5
98A2388|QCE|OVW|03.08.2016 04:34|03.08.2016 14:50|26974.00|2
98A2389|KSQ|UUI|23.07.2016 21:26|24.07.2016 07:42|49089.00|4
98A2390|IQS|MCX|21.08.2016 19:28|22.08.2016 05:44|46060.00|27
98A2391|GFY|PLE|10.08.2016 14:58|11.08.2016 01:14|45820.00|8
98A2392|KTO|MCX|30.08.2016 19:22|31.08.2016 05:38|49336.00|17
98A2393|UUI|KSQ|23.08.2016 02:28|23.08.2016 12:44|38820.00|15
98A2394|NVT|SVI|03.08.2016 10:32|03.08.2016 20:48|37812.00|27
98A2395|KMC|OVW|24.08.2016 01:02|24.08.2016 11:18|18846.00|0
98A2396|VIN|PLE|18.08.2016 11:23|18.08.2016 21:39|14285.00|15
98A2397|IQS|UUI|26.08.2016 10:00|26.08.2016 20:16|25049.00|27
98A2398|IQS|KNQ|24.07.2016 13:59|25.07.2016 00:15|37899.00|22
98A2399|SVI|MCX|25.08.2016 21:05|26.08.2016 07:21|40179.00|10
98A2400|OVW|OYQ|02.08.2016 05:16|02.08.2016 15:32|33171.00|17
98A2401|IQS|OYQ|14.08.2016 19:47|15.08.2016 06:03|38153.00|17
98A2402|MCX|KSQ|25.07.2016 09:35|25.07.2016 19:51|34747.00|8
98A2403|GFY|VIN|15.08.2016 13:13|15.08.2016 23:29|21573.00|20
98A2404|FNO|OYQ|06.08.2016 13:57|07.08.2016 00:13|49056.00|23
98A2405|KMC|UUI|26.07.2016 12:01|26.07.2016 22:17|17315.00|8
98A2406|GFY|WSP|22.08.2016 15:44|23.08.2016 02:00|20130.00|11
98A2407|RUF|IQS|23.08.2016 22:10|24.08.2016 08:26|49343.00|17
98A2408|KTO|VIN|05.08.2016 02:18|05.08.2016 12:34|30582.00|17
98A2409|OYQ|PRS|09.08.2016 00:07|09.08.2016 10:23|21387.00|14
98A2410|PRS|QCE|17.08.2016 10:22|17.08.2016 20:38|40461.00|23
98A2411|SVI|UUI|09.08.2016 15:58|10.08.2016 02:14|38635.00|1
98A2412|NVT|FNO|08.08.2016 21:04|09.08.2016 07:20|27482.00|15
98A2413|QCE|OYQ|27.07.2016 11:56|27.07.2016 22:12|30117.00|12
98A2414|IQS|TGC|16.08.2016 01:26|16.08.2016 11:42|30290.00|11
98A2415|KNQ|WSP|24.07.2016 00:38|24.07.2016 10:54|19668.00|15
98A2416|NVT|KNQ|25.08.2016 14:11|26.08.2016 00:27|36137.00|1
98A2417|KMC|NVT|01.08.2016 18:07|02.08.2016 04:23|28587.00|9
98A2418|MCX|TGC|29.07.2016 20:28|30.07.2016 06:44|41290.00|27
98A2419|PRS|GFY|25.07.2016 02:30|25.07.2016 12:46|15157.00|3
98A2420|KSQ|KNQ|25.08.2016 19:03|26.08.2016 05:19|41901.00|11
98A2421|KSQ|SVI|02.08.2016 16:46|03.08.2016 03:02|48988.00|28
98A2422|NVT|OVW|21.07.2016 10:07|21.07.2016 20:23|23950.00|1
98A2423|WSP|PLE|23.08.2016 12:17|23.08.2016 22:33|12995.00|5
98A2424|KSQ|IQS|28.07.2016 22:41|29.07.2016 08:57|12370.00|22
98A2425|NVT|UUI|11.08.2016 01:43|11.08.2016 11:59|24167.00|29
98A2426|PRS|PLE|26.08.2016 23:32|27.08.2016 09:48|10699.00|17
98A2427|RUF|VIN|21.07.2016 01:09|21.07.2016 11:25|10548.00|2
98A2428|GFY|TGC|08.08.2016 01:31|08.08.2016 11:47|44230.00|0
98A2429|QCE|FNO|23.07.2016 12:05|23.07.2016 22:21|49189.00|27
98A2430|TGC|KMC|15.08.2016 00:54|15.08.2016 11:10|12009.00|15
98A2431|UUI|PRS|16.08.2016 10:36|16.08.2016 20:52|32180.00|11
98A2432|KNQ|VIN|03.08.2016 05:11|03.08.2016 15:27|26115.00|4
98A2433|PLE|TGC|11.08.2016 02:13|11.08.2016 12:29|13271.00|26
98A2434|QCE|RUF|30.07.2016 00:42|30.07.2016 10:58|48825.00|13
98A2435|SVI|TGC|21.08.2016 14:29|22.08.2016 00:45|13937.00|12
98A2436|OVW|IQS|08.08.2016 17:00|09.08.2016 03:16|43000.00|11
98A2437|GFY|SVI|16.08.2016 00:26|16.08.2016 10:42|19528.00|19
98A2438|IQS|PLE|05.08.2016 13:46|06.08.2016 00:02|25472.00|9
98A2439|OYQ|RUF|06.08.2016 22:47|07.08.2016 09:03|21558.00|0
98A2440|VIN|OYQ|19.08.2016 09:01|19.08.2016 19:17|20831.00|7
98A2441|OVW|FNO|30.07.2016 15:56|31.07.2016 02:12|47486.00|25
98A2442|KNQ|QCE|21.07.2016 02:09|21.07.2016 12:25|11723.00|4
98A2443|FNO|KSQ|13.08.2016 13:15|13.08.2016 23:31|43529.00|29
98A2444|OYQ|TGC|17.08.2016 14:04|18.08.2016 00:20|27058.00|17
98A2445|OVW|PLE|01.08.2016 07:42|01.08.2016 17:58|19758.00|10
98A2446|KMC|FNO|20.07.2016 08:21|20.07.2016 18:37|10365.00|29
98A2447|WSP|IQS|27.08.2016 18:09|28.08.2016 04:25|15724.00|15
98A2448|QCE|FNO|22.08.2016 03:46|22.08.2016 14:02|27849.00|3
98A2449|RUF|IQS|28.08.2016 03:26|28.08.2016 13:42|21773.00|9
98A2450|QCE|SVI|26.08.2016 04:06|26.08.2016 14:22|20898.00|0
98A2451|SVI|WSP|24.08.2016 21:06|25.08.2016 07:22|39370.00|9
98A2452|PRS|KMC|18.08.2016 05:56|18.08.2016 16:12|49397.00|13
98A2453|FNO|PRS|10.08.2016 09:43|10.08.2016 19:59|25061.00|14
98A2454|NVT|KTO|13.08.2016 17:44|14.08.2016 04:00|27291.00|29
98A2455|KTO|FNO|03.08.2016 04:46|03.08.2016 15:02|31971.00|20
98A2456|FNO|OYQ|22.08.2016 06:37|22.08.2016 16:53|47063.00|19
98A2457|TGC|RUF|19.08.2016 19:43|20.08.2016 05:59|41034.00|10
98A2458|SVI|PLE|18.08.2016 08:38|18.08.2016 18:54|34558.00|3
98A2459|FNO|GFY|13.08.2016 17:32|14.08.2016 03:48|19950.00|29
98A2460|PLE|KMC|25.07.2016 12:11|25.07.2016 22:27|32990.00|1
98A2461|IQS|UUI|05.08.2016 03:34|05.08.2016 13:50|36696.00|16
98A2462|KSQ|KTO|17.08.2016 02:35|17.08.2016 12:51|13844.00|27
98A2463|RUF|KNQ|24.08.2016 17:56|25.08.2016 04:12|25922.00|2
98A2464|KSQ|VIN|24.08.2016 09:24|24.08.2016 19:40|14927.00|14
98A2465|RUF|SVI|30.07.2016 00:23|30.07.2016 10:39|46359.00|16
98A2466|KTO|OYQ|24.07.2016 06:08|24.07.2016 16:24|24618.00|22
98A2467|RUF|IQS|11.08.2016 12:42|11.08.2016 22:58|35357.00|24
98A2468|UUI|MCX|07.08.2016 22:16|08.08.2016 08:32|43488.00|6
98A2469|IQS|MCX|21.08.2016 17:20|22.08.2016 03:36|25933.00|6
98A2470|KTO|TGC|15.08.2016 21:06|16.08.2016 07:22|15330.00|13
98A2471|WSP|FNO|22.08.2016 04:25|22.08.2016 14:41|31722.00|23
98A2472|KMC|KSQ|27.08.2016 08:48|27.08.2016 19:04|33719.00|8
98A2473|SVI|WSP|22.08.2016 08:41|22.08.2016 18:57|15548.00|1
98A2474|WSP|NVT|23.07.2016 22:06|24.07.2016 08:22|15539.00|20
98A2475|KNQ|KTO|30.08.2016 08:35|30.08.2016 18:51|38935.00|7
98A2476|KNQ|IQS|23.08.2016 12:01|23.08.2016 22:17|20205.00|11
98A2477|MCX|OVW|21.08.2016 08:08|21.08.2016 18:24|41813.00|0
98A2478|OVW|KTO|31.07.2016 18:39|01.08.2016 04:55|31468.00|13
98A2479|QCE|MCX|29.08.2016 17:06|30.08.2016 03:22|42433.00|2
98A2480|SVI|VIN|04.08.2016 23:35|05.08.2016 09:51|12392.00|8
98A2481|UUI|KNQ|08.08.2016 13:06|08.08.2016 23:22|38335.00|27
98A2482|KNQ|WSP|26.08.2016 17:54|27.08.2016 04:10|26827.00|8
98A2483|KNQ|KMC|29.08.2016 16:13|30.08.2016 02:29|44912.00|1
98A2484|UUI|FNO|21.07.2016 07:42|21.07.2016 17:58|15219.00|13
98A2485|VIN|OVW|28.08.2016 10:45|28.08.2016 21:01|21781.00|15
98A2486|KMC|VIN|13.08.2016 17:48|14.08.2016 04:04|14154.00|5
98A2487|GFY|UUI|20.07.2016 08:03|20.07.2016 18:19|14196.00|10
98A2488|OVW|SVI|07.08.2016 12:15|07.08.2016 22:31|33896.00|22
98A2489|RUF|PRS|21.08.2016 09:44|21.08.2016 20:00|32878.00|28
98A2490|VIN|TGC|26.08.2016 21:04|27.08.2016 07:20|12123.00|20
98A2491|WSP|KSQ|24.08.2016 10:34|24.08.2016 20:50|37375.00|13
98A2492|NVT|MCX|27.07.2016 20:46|28.07.2016 07:02|41372.00|2
98A2493|KNQ|MCX|21.08.2016 09:15|21.08.2016 19:31|46081.00|9
98A2494|KSQ|VIN|24.07.2016 08:14|24.07.2016 18:30|14503.00|7
98A2495|KSQ|UUI|14.08.2016 07:50|14.08.2016 18:06|35067.00|20
98A2496|SVI|IQS|29.07.2016 08:46|29.07.2016 19:02|15057.00|4
98A2497|OVW|GFY|22.07.2016 20:55|23.07.2016 07:11|22586.00|4
98A2498|FNO|GFY|25.07.2016 04:18|25.07.2016 14:34|14876.00|17
98A2499|WSP|GFY|14.08.2016 15:10|15.08.2016 01:26|45107.00|19
98A2500|PLE|KMC|29.07.2016 09:23|29.07.2016 19:39|46159.00|1
98A2501|NVT|FNO|22.07.2016 13:21|22.07.2016 23:37|33689.00|20
98A2502|PRS|KNQ|09.08.2016 10:25|09.08.2016 20:41|44608.00|13
98A2503|KMC|SVI|01.08.2016 16:25|02.08.2016 02:41|37333.00|12
98A2504|NVT|UUI|20.08.2016 22:31|21.08.2016 08:47|26853.00|12
98A2505|KNQ|KTO|27.08.2016 23:45|28.08.2016 10:01|22063.00|16
98A2506|WSP|OVW|21.08.2016 10:32|21.08.2016 20:48|28623.00|6
98A2507|WSP|KMC|26.08.2016 01:24|26.08.2016 11:40|40765.00|10
98A2508|GFY|VIN|24.08.2016 06:48|24.08.2016 17:04|25956.00|28
98A2509|KMC|OYQ|12.08.2016 23:08|13.08.2016 09:24|13442.00|7
98A2510|UUI|PRS|26.08.2016 21:15|27.08.2016 07:31|38199.00|26
98A2511|TGC|FNO|24.07.2016 22:11|25.07.2016 08:27|27829.00|24
98A2512|VIN|UUI|24.07.2016 04:48|24.07.2016 15:04|33059.00|2
98A2513|WSP|MCX|28.08.2016 19:13|29.08.2016 05:29|22626.00|6
98A2514|PRS|TGC|10.08.2016 07:54|10.08.2016 18:10|21434.00|24
98A2515|TGC|KTO|16.08.2016 17:07|17.08.2016 03:23|39203.00|16
98A2516|KSQ|GFY|06.08.2016 02:11|06.08.2016 12:27|14854.00|19
98A2517|KMC|TGC|10.08.2016 10:13|10.08.2016 20:29|33408.00|5
98A2518|KMC|FNO|25.07.2016 21:47|26.07.2016 08:03|18144.00|12
98A2519|OVW|FNO|29.07.2016 19:09|30.07.2016 05:25|38915.00|19
98A2520|UUI|SVI|06.08.2016 21:49|07.08.2016 08:05|15061.00|20
98A2521|VIN|WSP|02.08.2016 04:33|02.08.2016 14:49|21312.00|5
98A2522|KSQ|TGC|11.08.2016 04:20|11.08.2016 14:36|23997.00|7
98A2523|RUF|KNQ|30.08.2016 08:17|30.08.2016 18:33|30632.00|29
98A2524|KNQ|FNO|26.07.2016 20:50|27.07.2016 07:06|35231.00|9
98A2525|OVW|RUF|25.08.2016 08:38|25.08.2016 18:54|49673.00|5
98A2526|KSQ|OYQ|21.07.2016 00:27|21.07.2016 10:43|40306.00|12
98A2527|NVT|OVW|01.08.2016 16:27|02.08.2016 02:43|25557.00|3
98A2528|WSP|UUI|17.08.2016 14:37|18.08.2016 00:53|43226.00|18
98A2529|FNO|QCE|07.08.2016 07:30|07.08.2016 17:46|28528.00|25
98A2530|MCX|GFY|12.08.2016 15:44|13.08.2016 02:00|23423.00|1
98A2531|KNQ|TGC|25.08.2016 01:48|25.08.2016 12:04|25359.00|6
98A2532|SVI|KNQ|27.08.2016 14:42|28.08.2016 00:58|20645.00|11
98A2533|MCX|FNO|06.08.2016 22:32|07.08.2016 08:48|13710.00|28
98A2534|OVW|KTO|29.08.2016 06:08|29.08.2016 16:24|10144.00|26
98A2535|OVW|MCX|30.07.2016 12:14|30.07.2016 22:30|17731.00|28
98A2536|PLE|SVI|22.08.2016 16:25|23.08.2016 02:41|35317.00|20
98A2537|TGC|MCX|21.08.2016 05:46|21.08.2016 16:02|45526.00|5
98A2538|MCX|KMC|15.08.2016 14:49|16.08.2016 01:05|33013.00|19
98A2539|OVW|IQS|25.08.2016 13:10|25.08.2016 23:26|24702.00|0
98A2540|WSP|KTO|20.08.2016 23:40|21.08.2016 09:56|43917.00|3
98A2541|KMC|IQS|05.08.2016 17:45|06.08.2016 04:01|43542.00|22
98A2542|UUI|KMC|28.08.2016 16:04|29.08.2016 02:20|10903.00|13
98A2543|QCE|KNQ|23.07.2016 14:46|24.07.2016 01:02|39957.00|4
98A2544|SVI|OVW|10.08.2016 16:27|11.08.2016 02:43|19617.00|22
98A2545|UUI|FNO|26.07.2016 02:17|26.07.2016 12:33|33777.00|13
98A2546|SVI|KTO|16.08.2016 14:33|17.08.2016 00:49|40235.00|8
98A2547|PRS|WSP|08.08.2016 21:34|09.08.2016 07:50|49373.00|20
98A2548|OYQ|RUF|25.07.2016 13:16|25.07.2016 23:32|24662.00|16
98A2549|KNQ|RUF|12.08.2016 13:16|12.08.2016 23:32|27423.00|24
98A2550|WSP|KTO|20.08.2016 18:14|21.08.2016 04:30|38166.00|23
98A2551|FNO|KMC|21.07.2016 23:49|22.07.2016 10:05|30569.00|11
98A2552|RUF|KSQ|10.08.2016 16:34|11.08.2016 02:50|13141.00|29
98A2553|NVT|OYQ|23.08.2016 02:36|23.08.2016 12:52|23322.00|27
98A2554|KNQ|PRS|22.08.2016 21:57|23.08.2016 08:13|10968.00|23
98A2555|KSQ|VIN|24.07.2016 23:51|25.07.2016 10:07|22055.00|26
98A2556|KMC|TGC|22.08.2016 07:27|22.08.2016 17:43|42941.00|4
98A2557|QCE|GFY|02.08.2016 21:15|03.08.2016 07:31|41878.00|7
98A2558|KMC|PRS|26.07.2016 12:39|26.07.2016 22:55|48511.00|22
98A2559|OVW|RUF|17.08.2016 11:03|17.08.2016 21:19|32926.00|11
98A2560|TGC|MCX|30.08.2016 21:21|31.08.2016 07:37|46902.00|21
98A2561|QCE|OYQ|25.07.2016 19:32|26.07.2016 05:48|11026.00|15
98A2562|PRS|OVW|13.08.2016 18:31|14.08.2016 04:47|47445.00|24
98A2563|OYQ|IQS|30.08.2016 20:37|31.08.2016 06:53|19394.00|19
98A2564|RUF|SVI|15.08.2016 03:53|15.08.2016 14:09|30510.00|26
98A2565|TGC|PRS|27.08.2016 07:19|27.08.2016 17:35|35001.00|21
98A2566|RUF|GFY|11.08.2016 15:35|12.08.2016 01:51|33790.00|19
98A2567|VIN|WSP|28.08.2016 08:56|28.08.2016 19:12|31153.00|25
98A2568|OYQ|TGC|20.08.2016 05:46|20.08.2016 16:02|16573.00|3
98A2569|TGC|OVW|21.07.2016 15:53|22.07.2016 02:09|39155.00|21
98A2570|WSP|OYQ|22.08.2016 12:02|22.08.2016 22:18|30771.00|0
98A2571|FNO|PRS|14.08.2016 02:52|14.08.2016 13:08|14450.00|5
98A2572|KMC|PLE|28.08.2016 18:40|29.08.2016 04:56|23351.00|22
98A2573|SVI|KSQ|20.07.2016 10:24|20.07.2016 20:40|10827.00|28
98A2574|RUF|GFY|21.07.2016 03:57|21.07.2016 14:13|44501.00|22
98A2575|NVT|TGC|31.07.2016 07:05|31.07.2016 17:21|46820.00|19
98A2576|UUI|PLE|24.08.2016 21:23|25.08.2016 07:39|17214.00|7
98A2577|PLE|IQS|13.08.2016 01:41|13.08.2016 11:57|35546.00|9
98A2578|WSP|SVI|30.08.2016 19:51|31.08.2016 06:07|39730.00|27
98A2579|OYQ|FNO|09.08.2016 11:47|09.08.2016 22:03|26730.00|4
98A2580|PRS|KTO|26.07.2016 02:49|26.07.2016 13:05|29034.00|13
98A2581|WSP|PLE|08.08.2016 00:44|08.08.2016 11:00|25136.00|6
98A2582|IQS|OVW|23.08.2016 15:58|24.08.2016 02:14|22728.00|29
98A2583|UUI|PRS|10.08.2016 23:43|11.08.2016 09:59|38558.00|25
98A2584|KNQ|WSP|17.08.2016 18:35|18.08.2016 04:51|19710.00|26
98A2585|SVI|VIN|25.07.2016 21:58|26.07.2016 08:14|43542.00|20
98A2586|PRS|IQS|27.08.2016 16:28|28.08.2016 02:44|26785.00|8
98A2587|NVT|GFY|11.08.2016 18:35|12.08.2016 04:51|23974.00|13
98A2588|OYQ|MCX|04.08.2016 06:41|04.08.2016 16:57|27786.00|6
98A2589|KTO|KNQ|23.08.2016 16:43|24.08.2016 02:59|12117.00|25
98A2590|FNO|RUF|20.07.2016 11:56|20.07.2016 22:12|13752.00|9
98A2591|KNQ|PLE|24.08.2016 05:45|24.08.2016 16:01|36668.00|0
98A2592|NVT|IQS|18.08.2016 20:56|19.08.2016 07:12|13818.00|5
98A2593|IQS|TGC|09.08.2016 10:05|09.08.2016 20:21|22789.00|19
98A2594|WSP|KNQ|25.07.2016 15:04|26.07.2016 01:20|30520.00|21
98A2595|PLE|OVW|03.08.2016 20:05|04.08.2016 06:21|12969.00|24
98A2596|FNO|TGC|18.08.2016 23:04|19.08.2016 09:20|12066.00|28
98A2597|IQS|UUI|16.08.2016 06:55|16.08.2016 17:11|27087.00|13
98A2598|OVW|NVT|04.08.2016 15:38|05.08.2016 01:54|17607.00|22
98A2599|KMC|TGC|22.07.2016 04:51|22.07.2016 15:07|13774.00|4
98A2600|WSP|GFY|23.07.2016 03:40|23.07.2016 13:56|49596.00|27
98A2601|IQS|KNQ|08.08.2016 05:30|08.08.2016 15:46|20740.00|4
98A2602|RUF|MCX|07.08.2016 23:29|08.08.2016 09:45|33109.00|24
98A2603|KNQ|WSP|25.08.2016 11:21|25.08.2016 21:37|37810.00|23
98A2604|IQS|PRS|29.07.2016 04:38|29.07.2016 14:54|48787.00|2
98A2605|KMC|WSP|26.08.2016 12:31|26.08.2016 22:47|25452.00|25
98A2606|UUI|QCE|14.08.2016 22:52|15.08.2016 09:08|19993.00|4
98A2607|VIN|FNO|03.08.2016 07:21|03.08.2016 17:37|25052.00|6
98A2608|TGC|QCE|31.07.2016 23:20|01.08.2016 09:36|44115.00|5
98A2609|OVW|VIN|27.07.2016 17:10|28.07.2016 03:26|34205.00|0
98A2610|WSP|RUF|13.08.2016 01:05|13.08.2016 11:21|28478.00|6
98A2611|RUF|OYQ|30.08.2016 03:15|30.08.2016 13:31|43788.00|7
98A2612|MCX|QCE|23.08.2016 09:29|23.08.2016 19:45|28993.00|27
98A2613|PLE|SVI|03.08.2016 02:07|03.08.2016 12:23|11905.00|14
98A2614|OYQ|SVI|25.08.2016 13:35|25.08.2016 23:51|33788.00|8
98A2615|SVI|PLE|24.07.2016 14:26|25.07.2016 00:42|32807.00|27
98A2616|SVI|KNQ|22.08.2016 02:44|22.08.2016 13:00|27408.00|11
98A2617|KTO|MCX|22.08.2016 20:04|23.08.2016 06:20|34607.00|20
98A2618|RUF|KTO|02.08.2016 08:32|02.08.2016 18:48|21642.00|26
98A2619|IQS|OVW|22.07.2016 09:29|22.07.2016 19:45|10535.00|1
98A2620|PLE|QCE|21.08.2016 16:42|22.08.2016 02:58|36665.00|17
98A2621|PRS|PLE|03.08.2016 11:32|03.08.2016 21:48|22546.00|27
98A2622|TGC|VIN|23.07.2016 19:15|24.07.2016 05:31|14283.00|29
98A2623|KNQ|KTO|04.08.2016 14:29|05.08.2016 00:45|37046.00|7
98A2624|KSQ|PLE|11.08.2016 13:54|12.08.2016 00:10|30197.00|5
98A2625|MCX|KNQ|30.08.2016 17:45|31.08.2016 04:01|49815.00|10
98A2626|WSP|SVI|20.08.2016 22:07|21.08.2016 08:23|17147.00|23
98A2627|OVW|PRS|24.08.2016 17:00|25.08.2016 03:16|11550.00|16
98A2628|PLE|PRS|24.08.2016 21:04|25.08.2016 07:20|49145.00|14
98A2629|OYQ|GFY|26.07.2016 03:31|26.07.2016 13:47|14861.00|14
98A2630|KSQ|KTO|24.07.2016 21:36|25.07.2016 07:52|30323.00|21
98A2631|KSQ|NVT|20.07.2016 07:18|20.07.2016 17:34|34595.00|18
98A2632|WSP|SVI|05.08.2016 07:10|05.08.2016 17:26|30338.00|25
98A2633|UUI|GFY|20.07.2016 05:51|20.07.2016 16:07|35712.00|10
98A2634|KTO|KSQ|23.08.2016 08:01|23.08.2016 18:17|39681.00|5
98A2635|OVW|SVI|03.08.2016 17:44|04.08.2016 04:00|26598.00|5
98A2636|RUF|GFY|10.08.2016 11:37|10.08.2016 21:53|20960.00|1
98A2637|MCX|IQS|18.08.2016 03:05|18.08.2016 13:21|12722.00|29
98A2638|RUF|SVI|02.08.2016 18:34|03.08.2016 04:50|44143.00|1
98A2639|VIN|OVW|28.08.2016 09:56|28.08.2016 20:12|16265.00|16
98A2640|PRS|TGC|17.08.2016 20:04|18.08.2016 06:20|31211.00|21
98A2641|MCX|PRS|19.08.2016 14:49|20.08.2016 01:05|40762.00|22
98A2642|FNO|IQS|23.07.2016 21:48|24.07.2016 08:04|22247.00|17
98A2643|KMC|TGC|15.08.2016 20:41|16.08.2016 06:57|39362.00|13
98A2644|KNQ|OVW|21.08.2016 13:57|22.08.2016 00:13|25162.00|10
98A2645|KMC|VIN|21.07.2016 01:48|21.07.2016 12:04|19581.00|23
98A2646|KMC|RUF|29.08.2016 01:39|29.08.2016 11:55|33331.00|11
98A2647|VIN|WSP|24.08.2016 18:23|25.08.2016 04:39|40918.00|11
98A2648|GFY|KMC|08.08.2016 19:07|09.08.2016 05:23|42726.00|16
98A2649|UUI|KMC|11.08.2016 17:52|12.08.2016 04:08|24912.00|14
98A2650|KSQ|OVW|05.08.2016 04:40|05.08.2016 14:56|18736.00|28
98A2651|MCX|GFY|16.08.2016 11:29|16.08.2016 21:45|27449.00|10
98A2652|PRS|KMC|27.07.2016 13:28|27.07.2016 23:44|19108.00|28
98A2653|WSP|OVW|16.08.2016 22:36|17.08.2016 08:52|39539.00|23
98A2654|IQS|KTO|21.08.2016 21:40|22.08.2016 07:56|39637.00|18
98A2655|OVW|TGC|26.07.2016 15:16|27.07.2016 01:32|20467.00|14
98A2656|KSQ|OVW|02.08.2016 06:48|02.08.2016 17:04|31372.00|18
98A2657|KTO|OYQ|30.07.2016 13:42|30.07.2016 23:58|34625.00|24
98A2658|KTO|RUF|24.08.2016 21:18|25.08.2016 07:34|30189.00|10
98A2659|IQS|MCX|29.08.2016 23:08|30.08.2016 09:24|26506.00|6
98A2660|QCE|FNO|03.08.2016 01:00|03.08.2016 11:16|32655.00|24
98A2661|OYQ|NVT|01.08.2016 22:02|02.08.2016 08:18|49882.00|1
98A2662|GFY|WSP|25.07.2016 04:18|25.07.2016 14:34|49322.00|23
98A2663|IQS|OVW|26.07.2016 04:08|26.07.2016 14:24|47370.00|22
98A2664|PRS|IQS|13.08.2016 15:51|14.08.2016 02:07|37854.00|24
98A2665|PRS|KSQ|22.07.2016 23:43|23.07.2016 09:59|15213.00|18
98A2666|PLE|FNO|30.07.2016 03:48|30.07.2016 14:04|23965.00|7
98A2667|PRS|NVT|10.08.2016 06:40|10.08.2016 16:56|36036.00|7
98A2668|OVW|QCE|17.08.2016 02:57|17.08.2016 13:13|26405.00|12
98A2669|KTO|KMC|28.07.2016 06:19|28.07.2016 16:35|33439.00|15
98A2670|OYQ|FNO|29.08.2016 16:18|30.08.2016 02:34|36176.00|25
98A2671|OYQ|SVI|28.08.2016 01:14|28.08.2016 11:30|35252.00|20
98A2672|VIN|OYQ|26.08.2016 11:00|26.08.2016 21:16|43893.00|29
98A2673|WSP|OYQ|21.07.2016 07:58|21.07.2016 18:14|41654.00|13
98A2674|KMC|QCE|19.08.2016 10:43|19.08.2016 20:59|37403.00|22
98A2675|UUI|WSP|24.07.2016 09:11|24.07.2016 19:27|34521.00|7
98A2676|PLE|KMC|17.08.2016 11:41|17.08.2016 21:57|33372.00|9
98A2677|KMC|KSQ|30.07.2016 11:42|30.07.2016 21:58|43263.00|21
98A2678|KMC|OVW|08.08.2016 22:20|09.08.2016 08:36|16800.00|16
98A2679|FNO|IQS|08.08.2016 04:45|08.08.2016 15:01|49180.00|2
98A2680|GFY|UUI|12.08.2016 12:11|12.08.2016 22:27|36531.00|24
98A2681|OVW|UUI|07.08.2016 11:37|07.08.2016 21:53|28757.00|17
98A2682|OVW|QCE|13.08.2016 04:45|13.08.2016 15:01|37531.00|28
98A2683|NVT|RUF|16.08.2016 21:23|17.08.2016 07:39|43186.00|26
98A2684|IQS|PRS|08.08.2016 13:55|09.08.2016 00:11|39612.00|27
98A2685|MCX|KNQ|28.08.2016 06:41|28.08.2016 16:57|47415.00|1
98A2686|WSP|PLE|19.08.2016 13:02|19.08.2016 23:18|21380.00|17
98A2687|PRS|GFY|11.08.2016 13:45|12.08.2016 00:01|33703.00|13
98A2688|QCE|OYQ|20.07.2016 01:46|20.07.2016 12:02|30345.00|0
98A2689|PLE|RUF|30.07.2016 08:40|30.07.2016 18:56|12670.00|13
98A2690|IQS|NVT|17.08.2016 01:24|17.08.2016 11:40|16381.00|23
98A2691|RUF|FNO|16.08.2016 05:57|16.08.2016 16:13|37176.00|25
98A2692|TGC|IQS|30.08.2016 13:45|31.08.2016 00:01|21773.00|13
98A2693|KSQ|SVI|06.08.2016 15:24|07.08.2016 01:40|34234.00|27
98A2694|KMC|OYQ|12.08.2016 15:51|13.08.2016 02:07|11098.00|0
98A2695|TGC|FNO|08.08.2016 17:59|09.08.2016 04:15|15673.00|27
98A2696|TGC|GFY|26.07.2016 13:39|26.07.2016 23:55|49244.00|12
98A2697|KNQ|RUF|26.07.2016 20:46|27.07.2016 07:02|40850.00|13
98A2698|TGC|IQS|19.08.2016 03:13|19.08.2016 13:29|35955.00|13
98A2699|PLE|OVW|24.07.2016 19:07|25.07.2016 05:23|18392.00|27
98A2700|MCX|PRS|25.07.2016 09:19|25.07.2016 19:35|19585.00|4
98A2701|KTO|OVW|26.07.2016 07:10|26.07.2016 17:26|46034.00|27
98A2702|NVT|VIN|04.08.2016 17:02|05.08.2016 03:18|20828.00|14
98A2703|WSP|NVT|14.08.2016 14:48|15.08.2016 01:04|13150.00|11
98A2704|FNO|GFY|27.07.2016 17:51|28.07.2016 04:07|26616.00|17
98A2705|FNO|IQS|20.08.2016 05:58|20.08.2016 16:14|31228.00|16
98A2706|KSQ|RUF|23.07.2016 18:41|24.07.2016 04:57|13294.00|7
98A2707|PRS|PLE|26.07.2016 02:36|26.07.2016 12:52|41202.00|17
98A2708|PRS|PLE|29.07.2016 20:56|30.07.2016 07:12|33006.00|28
98A2709|OYQ|NVT|22.08.2016 02:30|22.08.2016 12:46|49838.00|6
98A2710|KNQ|SVI|13.08.2016 03:58|13.08.2016 14:14|26813.00|22
98A2711|VIN|IQS|22.08.2016 13:16|22.08.2016 23:32|37482.00|9
98A2712|GFY|IQS|21.08.2016 15:57|22.08.2016 02:13|34124.00|27
98A2713|KMC|OYQ|21.07.2016 10:06|21.07.2016 20:22|10498.00|6
98A2714|FNO|KMC|21.08.2016 11:11|21.08.2016 21:27|34472.00|3
98A2715|SVI|OYQ|30.08.2016 04:34|30.08.2016 14:50|29087.00|25
98A2716|RUF|UUI|15.08.2016 10:58|15.08.2016 21:14|13009.00|19
98A2717|MCX|PLE|11.08.2016 05:30|11.08.2016 15:46|40277.00|25
98A2718|GFY|RUF|08.08.2016 18:04|09.08.2016 04:20|43423.00|23
98A2719|QCE|GFY|25.08.2016 04:53|25.08.2016 15:09|15792.00|22
98A2720|NVT|OVW|06.08.2016 00:13|06.08.2016 10:29|31479.00|25
98A2721|RUF|WSP|28.07.2016 18:07|29.07.2016 04:23|14318.00|11
98A2722|SVI|KTO|27.08.2016 14:22|28.08.2016 00:38|25629.00|26
98A2723|PLE|UUI|26.08.2016 04:24|26.08.2016 14:40|34095.00|16
98A2724|QCE|FNO|16.08.2016 11:22|16.08.2016 21:38|18532.00|0
98A2725|FNO|SVI|22.07.2016 13:01|22.07.2016 23:17|30183.00|22
98A2726|UUI|KSQ|17.08.2016 19:06|18.08.2016 05:22|25133.00|5
98A2727|TGC|PLE|20.08.2016 20:32|21.08.2016 06:48|38788.00|11
98A2728|QCE|KNQ|09.08.2016 06:53|09.08.2016 17:09|34278.00|9
98A2729|KNQ|KTO|26.07.2016 23:49|27.07.2016 10:05|43668.00|8
98A2730|KSQ|SVI|28.07.2016 08:45|28.07.2016 19:01|12362.00|24
98A2731|MCX|KNQ|31.07.2016 02:46|31.07.2016 13:02|12651.00|16
98A2732|GFY|IQS|24.08.2016 12:31|24.08.2016 22:47|43016.00|3
98A2733|NVT|PLE|21.08.2016 18:15|22.08.2016 04:31|46217.00|28
98A2734|UUI|WSP|17.08.2016 07:27|17.08.2016 17:43|16730.00|9
98A2735|PRS|KTO|21.07.2016 22:17|22.07.2016 08:33|10425.00|28
98A2736|GFY|NVT|02.08.2016 08:54|02.08.2016 19:10|47192.00|24
98A2737|SVI|IQS|24.08.2016 00:03|24.08.2016 10:19|19252.00|0
98A2738|NVT|KTO|29.08.2016 04:42|29.08.2016 14:58|29403.00|23
98A2739|NVT|UUI|29.08.2016 19:27|30.08.2016 05:43|20947.00|10
98A2740|MCX|RUF|11.08.2016 23:25|12.08.2016 09:41|49393.00|2
98A2741|IQS|OYQ|24.07.2016 18:06|25.07.2016 04:22|23891.00|25
98A2742|PRS|OYQ|06.08.2016 13:38|06.08.2016 23:54|36244.00|15
98A2743|WSP|KSQ|10.08.2016 07:18|10.08.2016 17:34|45216.00|19
98A2744|SVI|PLE|27.08.2016 16:37|28.08.2016 02:53|34911.00|13
98A2745|PRS|GFY|12.08.2016 09:15|12.08.2016 19:31|28195.00|27
98A2746|NVT|RUF|11.08.2016 02:52|11.08.2016 13:08|13831.00|3
98A2747|OYQ|PLE|15.08.2016 01:33|15.08.2016 11:49|47252.00|29
98A2748|KSQ|RUF|01.08.2016 16:41|02.08.2016 02:57|43826.00|17
98A2749|KTO|UUI|13.08.2016 02:45|13.08.2016 13:01|34256.00|20
98A2750|SVI|PRS|11.08.2016 06:40|11.08.2016 16:56|27622.00|18
98A2751|UUI|GFY|24.08.2016 05:11|24.08.2016 15:27|29760.00|1
98A2752|RUF|UUI|12.08.2016 19:37|13.08.2016 05:53|46859.00|1
98A2753|RUF|KTO|17.08.2016 22:32|18.08.2016 08:48|19143.00|11
98A2754|SVI|NVT|08.08.2016 05:03|08.08.2016 15:19|28794.00|15
98A2755|GFY|IQS|29.08.2016 07:51|29.08.2016 18:07|38738.00|20
98A2756|NVT|QCE|29.08.2016 20:19|30.08.2016 06:35|37336.00|9
98A2757|KMC|OVW|02.08.2016 22:41|03.08.2016 08:57|27412.00|0
98A2758|WSP|KNQ|24.08.2016 22:27|25.08.2016 08:43|42594.00|0
98A2759|IQS|KNQ|15.08.2016 13:07|15.08.2016 23:23|33202.00|18
98A2760|SVI|WSP|28.07.2016 22:26|29.07.2016 08:42|27370.00|0
98A2761|KTO|UUI|10.08.2016 11:11|10.08.2016 21:27|45047.00|18
98A2762|OVW|FNO|07.08.2016 06:58|07.08.2016 17:14|45407.00|5
98A2763|PLE|PRS|19.08.2016 14:06|20.08.2016 00:22|44463.00|4
98A2764|KMC|QCE|01.08.2016 07:00|01.08.2016 17:16|37499.00|8
98A2765|RUF|KMC|17.08.2016 10:38|17.08.2016 20:54|15512.00|16
98A2766|MCX|NVT|16.08.2016 07:31|16.08.2016 17:47|11648.00|18
98A2767|PRS|TGC|06.08.2016 19:05|07.08.2016 05:21|40705.00|20
98A2768|FNO|KTO|01.08.2016 12:56|01.08.2016 23:12|17586.00|13
98A2769|RUF|KMC|16.08.2016 18:02|17.08.2016 04:18|39624.00|9
98A2770|SVI|PLE|22.08.2016 18:32|23.08.2016 04:48|43814.00|7
98A2771|GFY|KTO|25.07.2016 20:03|26.07.2016 06:19|24270.00|13
98A2772|UUI|IQS|30.08.2016 19:05|31.08.2016 05:21|23325.00|19
98A2773|KNQ|WSP|13.08.2016 23:16|14.08.2016 09:32|22707.00|19
98A2774|FNO|KSQ|01.08.2016 13:27|01.08.2016 23:43|45855.00|19
98A2775|IQS|GFY|27.07.2016 18:16|28.07.2016 04:32|43322.00|2
98A2776|OVW|KNQ|01.08.2016 23:23|02.08.2016 09:39|17927.00|7
98A2777|PRS|KNQ|18.08.2016 06:58|18.08.2016 17:14|10539.00|6
98A2778|TGC|OVW|18.08.2016 05:44|18.08.2016 16:00|39770.00|18
98A2779|IQS|PLE|24.08.2016 11:42|24.08.2016 21:58|37377.00|4
98A2780|WSP|SVI|18.08.2016 20:02|19.08.2016 06:18|27379.00|0
98A2781|VIN|PLE|26.08.2016 00:19|26.08.2016 10:35|44879.00|23
98A2782|QCE|OVW|20.08.2016 02:37|20.08.2016 12:53|43769.00|19
98A2783|RUF|FNO|15.08.2016 22:49|16.08.2016 09:05|21010.00|22
98A2784|SVI|KTO|09.08.2016 10:02|09.08.2016 20:18|38669.00|3
98A2785|NVT|KNQ|11.08.2016 14:40|12.08.2016 00:56|21149.00|3
98A2786|IQS|PLE|10.08.2016 10:49|10.08.2016 21:05|11877.00|20
98A2787|KNQ|OYQ|11.08.2016 09:53|11.08.2016 20:09|20945.00|23
98A2788|QCE|PLE|20.08.2016 16:40|21.08.2016 02:56|28118.00|22
98A2789|UUI|OVW|29.08.2016 02:42|29.08.2016 12:58|38831.00|2
98A2790|TGC|OYQ|07.08.2016 01:29|07.08.2016 11:45|24498.00|24
98A2791|TGC|KMC|01.08.2016 22:02|02.08.2016 08:18|25237.00|26
98A2792|TGC|KSQ|01.08.2016 21:37|02.08.2016 07:53|18462.00|9
98A2793|PRS|VIN|29.08.2016 04:30|29.08.2016 14:46|14013.00|12
98A2794|WSP|KNQ|30.08.2016 09:57|30.08.2016 20:13|39797.00|14
98A2795|SVI|OVW|07.08.2016 08:47|07.08.2016 19:03|28046.00|10
98A2796|KTO|SVI|06.08.2016 05:21|06.08.2016 15:37|37372.00|21
98A2797|PRS|KSQ|28.08.2016 16:13|29.08.2016 02:29|13370.00|27
98A2798|GFY|OYQ|29.08.2016 08:08|29.08.2016 18:24|40388.00|12
98A2799|QCE|MCX|15.08.2016 04:48|15.08.2016 15:04|39584.00|17
98A2800|KMC|OVW|16.08.2016 08:07|16.08.2016 18:23|23262.00|24
98A2801|TGC|QCE|21.08.2016 10:34|21.08.2016 20:50|24881.00|12
98A2802|NVT|SVI|28.08.2016 05:07|28.08.2016 15:23|48738.00|10
98A2803|PRS|GFY|28.07.2016 17:07|29.07.2016 03:23|10841.00|5
98A2804|OVW|NVT|08.08.2016 21:10|09.08.2016 07:26|46690.00|9
98A2805|NVT|UUI|28.07.2016 12:34|28.07.2016 22:50|28849.00|25
98A2806|MCX|KNQ|28.07.2016 01:44|28.07.2016 12:00|14696.00|23
98A2807|RUF|UUI|29.07.2016 20:30|30.07.2016 06:46|26561.00|10
98A2808|VIN|OVW|01.08.2016 19:43|02.08.2016 05:59|40549.00|26
98A2809|FNO|OYQ|05.08.2016 09:03|05.08.2016 19:19|48255.00|28
98A2810|UUI|IQS|06.08.2016 21:29|07.08.2016 07:45|37366.00|10
98A2811|KSQ|KMC|29.08.2016 10:57|29.08.2016 21:13|29670.00|29
98A2812|OYQ|VIN|31.07.2016 21:56|01.08.2016 08:12|20261.00|29
98A2813|KSQ|PRS|27.08.2016 11:04|27.08.2016 21:20|31465.00|1
98A2814|UUI|MCX|06.08.2016 16:37|07.08.2016 02:53|23734.00|2
98A2815|RUF|VIN|06.08.2016 18:31|07.08.2016 04:47|34311.00|10
98A2816|OYQ|WSP|30.08.2016 20:08|31.08.2016 06:24|19671.00|14
98A2817|PLE|KNQ|23.08.2016 19:21|24.08.2016 05:37|30881.00|1
98A2818|QCE|OYQ|27.07.2016 16:30|28.07.2016 02:46|40347.00|29
98A2819|PLE|IQS|28.07.2016 21:14|29.07.2016 07:30|38777.00|24
98A2820|PLE|OVW|01.08.2016 01:53|01.08.2016 12:09|18812.00|12
98A2821|PRS|RUF|03.08.2016 16:28|04.08.2016 02:44|15888.00|19
98A2822|KMC|GFY|20.07.2016 05:36|20.07.2016 15:52|24537.00|9
98A2823|FNO|PLE|19.08.2016 07:55|19.08.2016 18:11|13901.00|19
98A2824|KNQ|KMC|28.08.2016 03:21|28.08.2016 13:37|46786.00|29
98A2825|GFY|MCX|20.08.2016 16:14|21.08.2016 02:30|29518.00|7
98A2826|KMC|KTO|15.08.2016 12:01|15.08.2016 22:17|33067.00|24
98A2827|WSP|NVT|13.08.2016 18:03|14.08.2016 04:19|33249.00|5
98A2828|OYQ|IQS|20.08.2016 14:12|21.08.2016 00:28|37450.00|13
98A2829|TGC|KTO|03.08.2016 07:14|03.08.2016 17:30|17861.00|24
98A2830|OYQ|KMC|30.07.2016 20:25|31.07.2016 06:41|46661.00|28
98A2831|GFY|OVW|20.08.2016 15:06|21.08.2016 01:22|43125.00|15
98A2832|SVI|UUI|30.08.2016 17:25|31.08.2016 03:41|25722.00|11
98A2833|KMC|VIN|06.08.2016 15:18|07.08.2016 01:34|35886.00|20
98A2834|QCE|UUI|21.07.2016 12:16|21.07.2016 22:32|31067.00|6
98A2835|KNQ|FNO|23.08.2016 16:06|24.08.2016 02:22|37066.00|18
98A2836|OVW|UUI|06.08.2016 21:29|07.08.2016 07:45|33538.00|13
98A2837|UUI|IQS|29.08.2016 17:09|30.08.2016 03:25|26744.00|15
98A2838|PLE|TGC|03.08.2016 04:55|03.08.2016 15:11|35886.00|22
98A2839|VIN|IQS|26.08.2016 07:20|26.08.2016 17:36|30651.00|21
98A2840|KMC|KNQ|14.08.2016 04:13|14.08.2016 14:29|37419.00|11
98A2841|OVW|RUF|23.07.2016 09:17|23.07.2016 19:33|45326.00|21
98A2842|NVT|WSP|10.08.2016 07:07|10.08.2016 17:23|27008.00|7
98A2843|UUI|VIN|06.08.2016 03:10|06.08.2016 13:26|21661.00|22
98A2844|SVI|IQS|25.07.2016 03:10|25.07.2016 13:26|41640.00|16
98A2845|OYQ|TGC|09.08.2016 03:54|09.08.2016 14:10|43997.00|24
98A2846|GFY|FNO|27.08.2016 23:01|28.08.2016 09:17|20910.00|11
98A2847|KTO|FNO|02.08.2016 20:08|03.08.2016 06:24|14172.00|19
98A2848|OVW|RUF|19.08.2016 11:28|19.08.2016 21:44|29384.00|0
98A2849|OVW|IQS|21.08.2016 07:58|21.08.2016 18:14|27425.00|10
98A2850|WSP|FNO|31.07.2016 07:43|31.07.2016 17:59|26109.00|27
98A2851|FNO|OVW|07.08.2016 10:50|07.08.2016 21:06|44149.00|15
98A2852|SVI|KTO|06.08.2016 12:44|06.08.2016 23:00|37102.00|8
98A2853|KSQ|QCE|30.07.2016 21:46|31.07.2016 08:02|14859.00|10
98A2854|MCX|FNO|26.07.2016 00:59|26.07.2016 11:15|16257.00|9
98A2855|KSQ|RUF|17.08.2016 04:52|17.08.2016 15:08|15684.00|19
98A2856|WSP|SVI|30.08.2016 18:59|31.08.2016 05:15|44680.00|2
98A2857|IQS|VIN|29.07.2016 12:26|29.07.2016 22:42|41503.00|25
98A2858|PRS|KMC|22.07.2016 12:10|22.07.2016 22:26|39273.00|29
98A2859|KTO|QCE|22.07.2016 16:29|23.07.2016 02:45|12270.00|0
98A2860|WSP|KNQ|11.08.2016 10:54|11.08.2016 21:10|10327.00|6
98A2861|RUF|OVW|22.07.2016 06:29|22.07.2016 16:45|17571.00|20
98A2862|PLE|VIN|22.08.2016 15:31|23.08.2016 01:47|22146.00|3
98A2863|PLE|RUF|08.08.2016 18:17|09.08.2016 04:33|21636.00|1
98A2864|IQS|GFY|29.07.2016 20:08|30.07.2016 06:24|13729.00|3
98A2865|QCE|PRS|23.08.2016 14:49|24.08.2016 01:05|41715.00|10
98A2866|FNO|PRS|24.07.2016 22:42|25.07.2016 08:58|12710.00|7
98A2867|TGC|KSQ|18.08.2016 00:53|18.08.2016 11:09|46472.00|2
98A2868|KNQ|WSP|26.08.2016 11:56|26.08.2016 22:12|18010.00|23
98A2869|KTO|RUF|13.08.2016 02:55|13.08.2016 13:11|34076.00|26
98A2870|OVW|QCE|22.07.2016 04:51|22.07.2016 15:07|39102.00|7
98A2871|UUI|KMC|15.08.2016 06:05|15.08.2016 16:21|35231.00|13
98A2872|UUI|KMC|28.08.2016 20:28|29.08.2016 06:44|37958.00|26
98A2873|QCE|NVT|27.08.2016 15:59|28.08.2016 02:15|23160.00|15
98A2874|UUI|KNQ|26.08.2016 10:10|26.08.2016 20:26|26157.00|2
98A2875|QCE|IQS|13.08.2016 02:31|13.08.2016 12:47|39748.00|1
98A2876|TGC|NVT|16.08.2016 21:46|17.08.2016 08:02|42556.00|0
98A2877|SVI|IQS|25.08.2016 10:40|25.08.2016 20:56|23519.00|12
98A2878|MCX|GFY|29.08.2016 20:48|30.08.2016 07:04|42043.00|13
98A2879|SVI|GFY|08.08.2016 06:21|08.08.2016 16:37|37260.00|13
98A2880|WSP|KMC|08.08.2016 10:38|08.08.2016 20:54|36229.00|24
98A2881|NVT|PLE|01.08.2016 05:31|01.08.2016 15:47|20961.00|13
98A2882|UUI|PLE|24.08.2016 09:06|24.08.2016 19:22|33727.00|12
98A2883|KSQ|KTO|26.08.2016 21:48|27.08.2016 08:04|45758.00|6
98A2884|UUI|FNO|24.07.2016 23:10|25.07.2016 09:26|35202.00|27
98A2885|OYQ|TGC|22.07.2016 02:31|22.07.2016 12:47|25833.00|11
98A2886|IQS|TGC|03.08.2016 16:04|04.08.2016 02:20|39170.00|6
98A2887|FNO|PRS|24.07.2016 23:13|25.07.2016 09:29|33710.00|2
98A2888|KMC|UUI|06.08.2016 01:20|06.08.2016 11:36|16687.00|17
98A2889|SVI|GFY|01.08.2016 15:15|02.08.2016 01:31|23873.00|26
98A2890|KSQ|VIN|21.07.2016 17:10|22.07.2016 03:26|26122.00|4
98A2891|KMC|QCE|20.08.2016 00:18|20.08.2016 10:34|49204.00|8
98A2892|KTO|GFY|01.08.2016 01:04|01.08.2016 11:20|24993.00|6
98A2893|OYQ|WSP|28.07.2016 18:18|29.07.2016 04:34|42853.00|12
98A2894|KNQ|IQS|26.08.2016 19:58|27.08.2016 06:14|31393.00|20
98A2895|PRS|NVT|26.08.2016 01:12|26.08.2016 11:28|33266.00|7
98A2896|KSQ|MCX|27.07.2016 17:53|28.07.2016 04:09|38124.00|25
98A2897|WSP|KNQ|13.08.2016 04:54|13.08.2016 15:10|15765.00|14
98A2898|KSQ|KMC|11.08.2016 13:09|11.08.2016 23:25|25453.00|1
98A2899|QCE|IQS|21.07.2016 04:07|21.07.2016 14:23|35605.00|8
98A2900|TGC|PRS|02.08.2016 21:12|03.08.2016 07:28|22829.00|20
98A2901|SVI|TGC|25.07.2016 20:25|26.07.2016 06:41|29905.00|29
98A2902|RUF|KMC|20.08.2016 08:11|20.08.2016 18:27|19589.00|24
98A2903|UUI|MCX|15.08.2016 21:54|16.08.2016 08:10|29749.00|29
98A2904|OVW|OYQ|28.08.2016 09:35|28.08.2016 19:51|20005.00|8
98A2905|PLE|KSQ|20.07.2016 07:30|20.07.2016 17:46|33239.00|2
98A2906|KTO|UUI|21.08.2016 13:22|21.08.2016 23:38|44051.00|11
98A2907|WSP|MCX|15.08.2016 17:40|16.08.2016 03:56|13002.00|18
98A2908|GFY|IQS|30.08.2016 07:50|30.08.2016 18:06|49246.00|21
98A2909|KTO|OVW|28.07.2016 02:04|28.07.2016 12:20|15884.00|29
98A2910|KMC|NVT|21.07.2016 13:49|22.07.2016 00:05|10880.00|2
98A2911|KNQ|WSP|20.07.2016 12:59|20.07.2016 23:15|43865.00|8
98A2912|FNO|SVI|05.08.2016 19:20|06.08.2016 05:36|41766.00|19
98A2913|TGC|QCE|30.08.2016 05:07|30.08.2016 15:23|20908.00|27
98A2914|KMC|VIN|15.08.2016 03:59|15.08.2016 14:15|16655.00|21
98A2915|OYQ|VIN|18.08.2016 10:34|18.08.2016 20:50|13009.00|8
98A2916|OVW|PRS|29.07.2016 04:26|29.07.2016 14:42|26125.00|14
98A2917|WSP|SVI|24.07.2016 00:03|24.07.2016 10:19|49801.00|13
98A2918|IQS|VIN|10.08.2016 14:52|11.08.2016 01:08|13901.00|15
98A2919|MCX|KMC|22.07.2016 03:32|22.07.2016 13:48|14971.00|25
98A2920|VIN|MCX|10.08.2016 07:08|10.08.2016 17:24|36510.00|20
98A2921|PRS|GFY|24.08.2016 06:39|24.08.2016 16:55|19979.00|0
98A2922|SVI|QCE|30.08.2016 22:49|31.08.2016 09:05|22727.00|0
98A2923|PRS|TGC|10.08.2016 19:23|11.08.2016 05:39|15511.00|28
98A2924|KMC|KTO|23.07.2016 08:47|23.07.2016 19:03|15619.00|10
98A2925|PRS|RUF|14.08.2016 15:15|15.08.2016 01:31|14971.00|1
98A2926|WSP|OVW|27.08.2016 01:21|27.08.2016 11:37|15475.00|13
98A2927|OVW|PRS|29.07.2016 13:31|29.07.2016 23:47|19808.00|25
98A2928|NVT|FNO|04.08.2016 17:11|05.08.2016 03:27|13334.00|3
98A2929|PRS|VIN|18.08.2016 21:18|19.08.2016 07:34|39360.00|28
98A2930|OVW|PRS|02.08.2016 08:15|02.08.2016 18:31|26371.00|23
98A2931|KMC|QCE|13.08.2016 21:16|14.08.2016 07:32|10794.00|27
98A2932|PRS|PLE|30.08.2016 11:57|30.08.2016 22:13|40260.00|17
98A2933|OYQ|WSP|05.08.2016 08:31|05.08.2016 18:47|25661.00|22
98A2934|TGC|OYQ|08.08.2016 10:47|08.08.2016 21:03|45016.00|7
98A2935|PLE|RUF|29.07.2016 21:13|30.07.2016 07:29|43050.00|19
98A2936|KMC|MCX|04.08.2016 09:32|04.08.2016 19:48|48371.00|17
98A2937|IQS|NVT|01.08.2016 10:05|01.08.2016 20:21|31495.00|4
98A2938|OVW|NVT|15.08.2016 03:17|15.08.2016 13:33|25956.00|10
98A2939|KNQ|RUF|09.08.2016 23:04|10.08.2016 09:20|16525.00|7
98A2940|NVT|OYQ|27.08.2016 00:51|27.08.2016 11:07|36897.00|7
98A2941|IQS|MCX|25.07.2016 21:29|26.07.2016 07:45|23144.00|23
98A2942|WSP|KMC|20.07.2016 22:29|21.07.2016 08:45|29454.00|25
98A2943|TGC|VIN|31.07.2016 07:09|31.07.2016 17:25|39720.00|1
98A2944|IQS|NVT|19.08.2016 05:11|19.08.2016 15:27|27949.00|19
98A2945|PRS|OYQ|18.08.2016 13:23|18.08.2016 23:39|34220.00|11
98A2946|PRS|OYQ|24.07.2016 16:28|25.07.2016 02:44|23989.00|10
98A2947|NVT|KNQ|26.07.2016 12:24|26.07.2016 22:40|12797.00|2
98A2948|FNO|WSP|23.07.2016 14:16|24.07.2016 00:32|41949.00|0
98A2949|SVI|GFY|18.08.2016 22:46|19.08.2016 09:02|37971.00|2
98A2950|KTO|GFY|25.07.2016 02:26|25.07.2016 12:42|39941.00|12
98A2951|KMC|TGC|20.08.2016 20:39|21.08.2016 06:55|40696.00|13
98A2952|UUI|IQS|19.08.2016 19:30|20.08.2016 05:46|11224.00|23
98A2953|KMC|VIN|04.08.2016 11:17|04.08.2016 21:33|35112.00|12
98A2954|NVT|IQS|20.08.2016 06:47|20.08.2016 17:03|43622.00|18
98A2955|PLE|QCE|03.08.2016 04:27|03.08.2016 14:43|40371.00|14
98A2956|UUI|PRS|29.08.2016 16:25|30.08.2016 02:41|48911.00|18
98A2957|WSP|KMC|29.08.2016 18:01|30.08.2016 04:17|48970.00|1
98A2958|KNQ|TGC|10.08.2016 22:04|11.08.2016 08:20|37855.00|4
98A2959|FNO|OVW|25.07.2016 20:45|26.07.2016 07:01|37345.00|1
98A2960|FNO|UUI|29.08.2016 07:20|29.08.2016 17:36|38445.00|8
98A2961|IQS|TGC|01.08.2016 09:43|01.08.2016 19:59|20795.00|4
98A2962|TGC|QCE|30.08.2016 19:30|31.08.2016 05:46|41223.00|11
98A2963|SVI|QCE|01.08.2016 19:55|02.08.2016 06:11|48638.00|14
98A2964|IQS|WSP|07.08.2016 01:46|07.08.2016 12:02|21983.00|11
98A2965|OVW|UUI|07.08.2016 09:03|07.08.2016 19:19|47241.00|9
98A2966|QCE|PRS|22.08.2016 01:53|22.08.2016 12:09|24311.00|27
98A2967|MCX|VIN|28.07.2016 02:57|28.07.2016 13:13|44608.00|18
98A2968|WSP|GFY|30.07.2016 12:44|30.07.2016 23:00|20911.00|1
98A2969|OVW|TGC|04.08.2016 19:57|05.08.2016 06:13|11266.00|21
98A2970|MCX|TGC|25.07.2016 06:37|25.07.2016 16:53|39970.00|5
98A2971|UUI|IQS|26.08.2016 07:52|26.08.2016 18:08|25746.00|21
98A2972|UUI|VIN|11.08.2016 19:30|12.08.2016 05:46|26082.00|11
98A2973|UUI|KMC|27.07.2016 19:33|28.07.2016 05:49|17747.00|23
98A2974|TGC|KNQ|30.08.2016 23:35|31.08.2016 09:51|44514.00|0
98A2975|TGC|UUI|12.08.2016 16:20|13.08.2016 02:36|43042.00|3
98A2976|OVW|VIN|31.07.2016 12:33|31.07.2016 22:49|22082.00|21
98A2977|UUI|PRS|06.08.2016 14:14|07.08.2016 00:30|14199.00|12
98A2978|IQS|UUI|05.08.2016 21:30|06.08.2016 07:46|38128.00|8
98A2979|OVW|PLE|30.08.2016 08:29|30.08.2016 18:45|21855.00|5
98A2980|QCE|OVW|05.08.2016 13:53|06.08.2016 00:09|42270.00|29
98A2981|MCX|GFY|01.08.2016 23:30|02.08.2016 09:46|14325.00|1
98A2982|SVI|KSQ|21.07.2016 07:59|21.07.2016 18:15|36482.00|25
98A2983|MCX|NVT|12.08.2016 21:14|13.08.2016 07:30|23440.00|23
98A2984|VIN|OYQ|31.07.2016 21:44|01.08.2016 08:00|10673.00|2
98A2985|QCE|UUI|21.07.2016 00:06|21.07.2016 10:22|11489.00|6
98A2986|MCX|QCE|29.08.2016 02:26|29.08.2016 12:42|14644.00|29
98A2987|QCE|FNO|29.08.2016 10:09|29.08.2016 20:25|33486.00|7
98A2988|NVT|UUI|31.07.2016 09:19|31.07.2016 19:35|11929.00|5
98A2989|FNO|OYQ|27.08.2016 06:43|27.08.2016 16:59|48283.00|14
98A2990|GFY|UUI|06.08.2016 10:32|06.08.2016 20:48|17572.00|23
98A2991|GFY|KTO|28.08.2016 15:28|29.08.2016 01:44|19945.00|10
98A2992|KTO|KMC|01.08.2016 00:45|01.08.2016 11:01|31716.00|3
98A2993|GFY|IQS|08.08.2016 14:44|09.08.2016 01:00|15413.00|17
98A2994|MCX|PLE|20.07.2016 04:53|20.07.2016 15:09|14347.00|1
98A2995|OVW|KTO|28.08.2016 18:11|29.08.2016 04:27|26296.00|25
98A2996|WSP|QCE|14.08.2016 04:23|14.08.2016 14:39|15668.00|27
98A2997|KMC|QCE|16.08.2016 05:59|16.08.2016 16:15|12389.00|18
98A2998|KMC|NVT|29.08.2016 21:01|30.08.2016 07:17|43916.00|13
98A2999|GFY|SVI|25.08.2016 12:38|25.08.2016 22:54|44698.00|19
98A3000|SVI|OVW|09.08.2016 07:42|09.08.2016 17:58|11769.00|4
98A3001|RUF|MCX|29.08.2016 13:51|30.08.2016 00:07|40426.00|1
98A3002|IQS|TGC|08.08.2016 21:46|09.08.2016 08:02|16593.00|25
98A3003|TGC|OVW|30.08.2016 13:42|30.08.2016 23:58|30476.00|8
98A3004|TGC|PRS|25.08.2016 13:42|25.08.2016 23:58|15264.00|8
98A3005|OVW|NVT|28.08.2016 15:41|29.08.2016 01:57|10297.00|16
98A3006|SVI|OYQ|27.07.2016 11:29|27.07.2016 21:45|29194.00|8
98A3007|IQS|PLE|31.07.2016 13:21|31.07.2016 23:37|20722.00|12
98A3008|GFY|MCX|08.08.2016 10:17|08.08.2016 20:33|49558.00|29
98A3009|FNO|IQS|20.07.2016 05:36|20.07.2016 15:52|11258.00|9
98A3010|GFY|SVI|19.08.2016 02:04|19.08.2016 12:20|34849.00|10
98A3011|RUF|GFY|15.08.2016 01:48|15.08.2016 12:04|19197.00|16
98A3012|MCX|VIN|04.08.2016 12:02|04.08.2016 22:18|13299.00|24
98A3013|KTO|VIN|16.08.2016 14:16|17.08.2016 00:32|28377.00|2
98A3014|OVW|MCX|21.07.2016 19:06|22.07.2016 05:22|13411.00|6
98A3015|NVT|MCX|04.08.2016 01:25|04.08.2016 11:41|40860.00|4
98A3016|SVI|KMC|19.08.2016 00:38|19.08.2016 10:54|34692.00|27
98A3017|OVW|KSQ|16.08.2016 09:20|16.08.2016 19:36|26005.00|3
98A3018|TGC|RUF|12.08.2016 04:49|12.08.2016 15:05|12688.00|3
98A3019|TGC|OYQ|29.08.2016 07:40|29.08.2016 17:56|38979.00|25
98A3020|TGC|KTO|29.07.2016 22:00|30.07.2016 08:16|41049.00|21
98A3021|NVT|PRS|06.08.2016 20:17|07.08.2016 06:33|30510.00|19
98A3022|QCE|KTO|30.08.2016 15:24|31.08.2016 01:40|42519.00|11
98A3023|OVW|RUF|05.08.2016 06:24|05.08.2016 16:40|22252.00|21
98A3024|KNQ|MCX|25.08.2016 10:02|25.08.2016 20:18|21312.00|2
98A3025|VIN|KNQ|25.08.2016 13:49|26.08.2016 00:05|24950.00|29
98A3026|OVW|QCE|27.08.2016 10:52|27.08.2016 21:08|28336.00|2
98A3027|KSQ|KNQ|22.08.2016 21:00|23.08.2016 07:16|37138.00|15
98A3028|WSP|GFY|22.08.2016 05:00|22.08.2016 15:16|43287.00|2
98A3029|KMC|SVI|23.07.2016 04:47|23.07.2016 15:03|14798.00|19
98A3030|GFY|QCE|27.07.2016 13:12|27.07.2016 23:28|47352.00|7
98A3031|KMC|NVT|24.07.2016 16:13|25.07.2016 02:29|46798.00|16
98A3032|KSQ|KNQ|18.08.2016 21:36|19.08.2016 07:52|42206.00|27
